%YAML 1.1
%TAG !u! tag:unity3d.com,2011:
--- !u!1 &6963624783237718540
GameObject:
  m_ObjectHideFlags: 0
  m_CorrespondingSourceObject: {fileID: 0}
  m_PrefabInstance: {fileID: 0}
  m_PrefabAsset: {fileID: 0}
  serializedVersion: 6
  m_Component:
  - component: {fileID: 7133684011580306683}
  m_Layer: 0
  m_Name: Equipped Bow
  m_TagString: Untagged
  m_Icon: {fileID: 0}
  m_NavMeshLayer: 0
  m_StaticEditorFlags: 0
  m_IsActive: 1
--- !u!4 &7133684011580306683
Transform:
  m_ObjectHideFlags: 0
  m_CorrespondingSourceObject: {fileID: 0}
  m_PrefabInstance: {fileID: 0}
  m_PrefabAsset: {fileID: 0}
  m_GameObject: {fileID: 6963624783237718540}
  m_LocalRotation: {x: 0, y: 0, z: 0, w: 1}
  m_LocalPosition: {x: 0, y: 0, z: 0}
  m_LocalScale: {x: 1, y: 1, z: 1}
  m_Children:
  - {fileID: 4906131700430471020}
  m_Father: {fileID: 0}
  m_RootOrder: 0
  m_LocalEulerAnglesHint: {x: 0, y: 0, z: 0}
--- !u!1001 &4906989913893161318
PrefabInstance:
  m_ObjectHideFlags: 0
  serializedVersion: 2
  m_Modification:
    m_TransformParent: {fileID: 7133684011580306683}
    m_Modifications:
    - target: {fileID: 1563655986059756, guid: 7f105c0c272e6c146b4b41cdc53ea356, type: 3}
      propertyPath: m_Name
      value: Simple Bow
      objectReference: {fileID: 0}
    - target: {fileID: 4281075886339594, guid: 7f105c0c272e6c146b4b41cdc53ea356, type: 3}
      propertyPath: m_LocalPosition.x
      value: -0.35
      objectReference: {fileID: 0}
    - target: {fileID: 4281075886339594, guid: 7f105c0c272e6c146b4b41cdc53ea356, type: 3}
      propertyPath: m_LocalPosition.y
      value: -0.149
      objectReference: {fileID: 0}
    - target: {fileID: 4281075886339594, guid: 7f105c0c272e6c146b4b41cdc53ea356, type: 3}
      propertyPath: m_LocalPosition.z
      value: -0.919
      objectReference: {fileID: 0}
    - target: {fileID: 4281075886339594, guid: 7f105c0c272e6c146b4b41cdc53ea356, type: 3}
      propertyPath: m_LocalRotation.x
      value: -0.19641037
      objectReference: {fileID: 0}
    - target: {fileID: 4281075886339594, guid: 7f105c0c272e6c146b4b41cdc53ea356, type: 3}
      propertyPath: m_LocalRotation.y
      value: -0.7063038
      objectReference: {fileID: 0}
    - target: {fileID: 4281075886339594, guid: 7f105c0c272e6c146b4b41cdc53ea356, type: 3}
      propertyPath: m_LocalRotation.z
      value: -0.6239107
      objectReference: {fileID: 0}
    - target: {fileID: 4281075886339594, guid: 7f105c0c272e6c146b4b41cdc53ea356, type: 3}
      propertyPath: m_LocalRotation.w
      value: 0.2707277
      objectReference: {fileID: 0}
    - target: {fileID: 4281075886339594, guid: 7f105c0c272e6c146b4b41cdc53ea356, type: 3}
      propertyPath: m_RootOrder
      value: 0
      objectReference: {fileID: 0}
    - target: {fileID: 4281075886339594, guid: 7f105c0c272e6c146b4b41cdc53ea356, type: 3}
      propertyPath: m_LocalEulerAnglesHint.x
      value: -81
      objectReference: {fileID: 0}
    - target: {fileID: 4281075886339594, guid: 7f105c0c272e6c146b4b41cdc53ea356, type: 3}
      propertyPath: m_LocalEulerAnglesHint.y
      value: -118.6
      objectReference: {fileID: 0}
    - target: {fileID: 4281075886339594, guid: 7f105c0c272e6c146b4b41cdc53ea356, type: 3}
      propertyPath: m_LocalEulerAnglesHint.z
      value: -22.7
      objectReference: {fileID: 0}
    m_RemovedComponents: []
  m_SourcePrefab: {fileID: 100100000, guid: 7f105c0c272e6c146b4b41cdc53ea356, type: 3}
--- !u!4 &4906131700430471020 stripped
Transform:
  m_CorrespondingSourceObject: {fileID: 4281075886339594, guid: 7f105c0c272e6c146b4b41cdc53ea356,
    type: 3}
  m_PrefabInstance: {fileID: 4906989913893161318}
  m_PrefabAsset: {fileID: 0}
