%YAML 1.1
%TAG !u! tag:unity3d.com,2011:
--- !u!221 &22100000
AnimatorOverrideController:
  m_ObjectHideFlags: 0
  m_CorrespondingSourceObject: {fileID: 0}
  m_PrefabInstance: {fileID: 0}
  m_PrefabAsset: {fileID: 0}
  m_Name: Sword Override Controller
  m_Controller: {fileID: 9100000, guid: b4d860266ba698c429e1310769707cbc, type: 2}
  m_Clips:
  - m_OriginalClip: {fileID: 7400000, guid: 1315bcd7509173f44bc6655b2673dd4d, type: 3}
    m_OverrideClip: {fileID: 7400000, guid: 58f2909dff975b54c8395d479180996e, type: 3}
